using System;
namespace program2day1
    {
    struct Person
    {
        public string name;
        public int age;
        public char gender;
        public float weight;

    }
    class Program
    {
        static void Main(string[]args)
        {
            Person Person1;
            Person1.name = "SANJEEVINI";
            Console.WriteLine(Person1.name);
            Person1.age = 21;
            Console.WriteLine(Person1.age);
            Person1.gender = 'f';
            Console.WriteLine(Person1.gender);
            Person1.weight = 55.2F;
            Console.WriteLine(Person1.weight);






        }
        
    }


}


